; Engine configuration file.
; It's best edited using the editor UI and not directly,
; since the parameters that go here are not all obvious.
;
; Format:
;   [section] ; section goes between []
;   param=value ; assign values to parameters

config_version=4

_global_script_classes=[ {
"base": "Node2D",
"class": "MagicCard",
"language": "GDScript",
"path": "res://source/Card.gd"
} ]
_global_script_class_icons={
"MagicCard": ""
}

[application]

config/name="King's Treasure"
run/main_scene="res://source/Main.tscn"
boot_splash/image="res://source/assets/image/bg.png"
config/icon="res://icon.png"

[display]

window/size/width=823
window/size/height=411
window/dpi/allow_hidpi=true
window/handheld/orientation="sensor_landscape"
window/stretch/mode="2d"
window/stretch/aspect="expand"

[input_devices]

pointing/emulate_touch_from_mouse=true

[logging]

file_logging/enable_file_logging.pc=false

[rendering]

environment/default_environment="res://default_env.tres"
